…
This plot looks very similar to the plot between France and Austria’s
life expectancies, so we can also conclude that France and Austria have
had similar life expectancies between 1952 and 2007, as well as similar
increase in life expectancy in that same timeframe.

Let’s now reshape the tibble to be in long format again.

``` r
(long_life_exp_tbl <- wide_life_exp_tbl %>% 
  pivot_longer(cols = c('Austria', 'Germany', 'France'),
               names_to = 'country',
               values_to = 'lifeExp'))
```

    ## # A tibble: 36 x 3
    ##     year country lifeExp
    ##    <int> <chr>     <dbl>
    ##  1  1952 Austria    66.8
    ##  2  1952 Germany    67.5
    ##  3  1952 France     67.4
    ##  4  1957 Austria    67.5
    ##  5  1957 Germany    69.1
    ##  6  1957 France     68.9
    ##  7  1962 Austria    69.5
    ##  8  1962 Germany    70.3
    ##  9  1962 France     70.5
    ## 10  1967 Austria    70.1
    ## # … with 26 more rows
…
Now each column corresponds to the life expectancy or GDP per capita for
either Denmark or Iceland.

Let’s make the tibble longer again, using science\!

``` r
wide_multivariate_tbl %>% 
  pivot_longer(cols = -year,
               names_to = c('.value','country'),
               names_sep = '_')
```

    ## # A tibble: 24 x 4
    ##     year country lifeExp gdpPercap
    ##    <int> <chr>     <dbl>     <dbl>
    ##  1  1952 Denmark    70.8     9692.
    ##  2  1952 Iceland    72.5     7268.
    ##  3  1957 Denmark    71.8    11100.
    ##  4  1957 Iceland    73.5     9244.
    ##  5  1962 Denmark    72.4    13583.
    ##  6  1962 Iceland    73.7    10350.
    ##  7  1967 Denmark    73.0    15937.
    ##  8  1967 Iceland    73.7    13320.
    ##  9  1972 Denmark    73.5    18866.
    ## 10  1972 Iceland    74.5    15798.
    ## # … with 14 more rows
…
Let’s download the data for this
exercise.

``` r
guest <- read_csv("https://raw.githubusercontent.com/STAT545-UBC/Classroom/master/data/wedding/attend.csv")
email <- read_csv("https://raw.githubusercontent.com/STAT545-UBC/Classroom/master/data/wedding/emails.csv")
```

The `guest` dataset looks like this:

``` r
guest
```

    ## # A tibble: 30 x 7
    ##    party name  meal_wedding meal_brunch attendance_wedd… attendance_brun…
    ##    <dbl> <chr> <chr>        <chr>       <chr>            <chr>           
    ##  1     1 Somm… PENDING      PENDING     PENDING          PENDING         
    ##  2     1 Phil… vegetarian   Menu C      CONFIRMED        CONFIRMED       
    ##  3     1 Blan… chicken      Menu A      CONFIRMED        CONFIRMED       
    ##  4     1 Emaa… PENDING      PENDING     PENDING          PENDING         
    ##  5     2 Blai… chicken      Menu C      CONFIRMED        CONFIRMED       
    ##  6     2 Nige… <NA>         <NA>        CANCELLED        CANCELLED       
    ##  7     3 Sine… PENDING      PENDING     PENDING          PENDING         
    ##  8     4 Ayra… vegetarian   Menu B      PENDING          PENDING         
    ##  9     5 Atla… PENDING      PENDING     PENDING          PENDING         
    ## 10     5 Denz… fish         Menu B      CONFIRMED        CONFIRMED       
    ## # … with 20 more rows, and 1 more variable: attendance_golf <chr>
…
The `email` dataset is kind of inconvenient at the moment in that
several guests are grouped in the same row. Let’s make a row for each
unique
guest.

``` r
# `sep = ', '` indicates that guest names are separated by a comma, followed by a space
(email <- email %>% separate_rows(guest, sep = ', ')) 
```

    ## # A tibble: 28 x 2
    ##    guest           email              
    ##    <chr>           <chr>              
    ##  1 Sommer Medrano  sommm@gmail.com    
    ##  2 Phillip Medrano sommm@gmail.com    
    ##  3 Blanka Medrano  sommm@gmail.com    
    ##  4 Emaan Medrano   sommm@gmail.com    
    ##  5 Blair Park      bpark@gmail.com    
    ##  6 Nigel Webb      bpark@gmail.com    
    ##  7 Sinead English  singlish@hotmail.ca
    ##  8 Ayra Marks      marksa42@gmail.com 
    ##  9 Jolene Welsh    jw1987@hotmail.com 
    ## 10 Hayley Booker   jw1987@hotmail.com 
    ## # … with 18 more rows

That’s better\! Let’s now work with the datasets.

## Exercise 3.1

Let’s add a column corresponding to the email for each guest.

``` r
left_join(guest, email, by=c("name" = "guest"))
```

    ## # A tibble: 30 x 8
    ##    party name  meal_wedding meal_brunch attendance_wedd… attendance_brun…
    ##    <dbl> <chr> <chr>        <chr>       <chr>            <chr>           
    ##  1     1 Somm… PENDING      PENDING     PENDING          PENDING         
    ##  2     1 Phil… vegetarian   Menu C      CONFIRMED        CONFIRMED       
    ##  3     1 Blan… chicken      Menu A      CONFIRMED        CONFIRMED       
    ##  4     1 Emaa… PENDING      PENDING     PENDING          PENDING         
    ##  5     2 Blai… chicken      Menu C      CONFIRMED        CONFIRMED       
    ##  6     2 Nige… <NA>         <NA>        CANCELLED        CANCELLED       
    ##  7     3 Sine… PENDING      PENDING     PENDING          PENDING         
    ##  8     4 Ayra… vegetarian   Menu B      PENDING          PENDING         
    ##  9     5 Atla… PENDING      PENDING     PENDING          PENDING         
    ## 10     5 Denz… fish         Menu B      CONFIRMED        CONFIRMED       
    ## # … with 20 more rows, and 2 more variables: attendance_golf <chr>,
    ## #   email <chr>
…
